final_project_mkdn
…
#so many BMI points I find it hard to interpret. but the code works!

longer_teen_bmi_1

## # A tibble: 3,576 x 6
##      PID TSEX   TGRADE       bmi MVPA_when     minutes
##    <dbl> <chr>  <chr>      <dbl> <chr>           <dbl>
##  1     6 Male   10th grade  22.2 XTPREDWEEKS      260.
##  2     6 Male   10th grade  22.2 XTPREDWEEKOFS    256.
##  3     6 Male   10th grade  22.2 XTPREDWEEKW      173.
##  4     8 Male   9th grade   19.7 XTPREDWEEKS      255.
##  5     8 Male   9th grade   19.7 XTPREDWEEKOFS    251.
##  6     8 Male   9th grade   19.7 XTPREDWEEKW      228.
##  7    10 Male   9th grade   19.1 XTPREDWEEKS      303.
##  8    10 Male   9th grade   19.1 XTPREDWEEKOFS    283.
##  9    10 Male   9th grade   19.1 XTPREDWEEKW      215.
## 10    24 Female 11th grade  48.4 XTPREDWEEKS      225.
## # ... with 3,566 more rows
…
